SSSSSSSSSSSSSSSSSSS
WWWWWWWWWWWWWWWWWWW
W        W        W
WEWW WWW W WWW WWEW
W                 W
W WW W WWWWW W WW W
W    W   W   W    W
WWWW WWW W WWW WWWW
NNNW W       W WNNN
WWWW W WWWWW W WWWW
T      wNNNw      T
wwww w wwwww w wwww
NNNw w       w wNNN
wwww w wwwww w wwww
w        w        w
w ww www w www ww w
wE w           w Ew
ww w w wwwww w w ww
w    w   w   w    w
w wwwwww w wwwwww w
w                 w
wwwwwwwwwwwwwwwwwww